[api-updater (non-obsolete-error-filter)] 19/04/2021 18:52:06 : Starting C:/Program Files/Unity/Hub/Editor/2020.3.3f1/Editor/Data/Tools/ScriptUpdater/APIUpdater.NonObsoleteApiUpdaterDetector.exe
[api-updater (non-obsolete-error-filter)] 
----------------------------------
jit/startup time      : 589,0711ms
moved types parse time: 97ms
candidates parse time : 1ms
C# parse time         : 602ms
candidates check time : 56ms
console write time    : 7ms

[api-updater (non-obsolete-error-filter)] 19/04/2021 19:07:51 : Starting C:/Program Files/Unity/Hub/Editor/2020.3.3f1/Editor/Data/Tools/ScriptUpdater/APIUpdater.NonObsoleteApiUpdaterDetector.exe
[api-updater (non-obsolete-error-filter)] 
----------------------------------
jit/startup time      : 55,8456ms
moved types parse time: 50ms
candidates parse time : 1ms
C# parse time         : 197ms
candidates check time : 26ms
console write time    : 0ms

[api-updater (non-obsolete-error-filter)] 19/04/2021 19:40:45 : Starting C:/Program Files/Unity/Hub/Editor/2020.3.3f1/Editor/Data/Tools/ScriptUpdater/APIUpdater.NonObsoleteApiUpdaterDetector.exe
[api-updater (non-obsolete-error-filter)] 
----------------------------------
jit/startup time      : 58,3738ms
moved types parse time: 53ms
candidates parse time : 1ms
C# parse time         : 190ms
candidates check time : 29ms
console write time    : 0ms

[api-updater (non-obsolete-error-filter)] 20/04/2021 10:37:49 : Starting C:/Program Files/Unity/Hub/Editor/2020.3.3f1/Editor/Data/Tools/ScriptUpdater/APIUpdater.NonObsoleteApiUpdaterDetector.exe
[api-updater (non-obsolete-error-filter)] Exception caught while loading types from C:\Users\Dylan\Documents\Wefa\Wefa-Dylan\Wefa-Dylan\Library\ScriptAssemblies\Unity.TextMeshPro.Editor.dll (some types may not be loaded)
	Exception of type 'System.Reflection.ReflectionTypeLoadException' was thrown.
	  at (wrapper managed-to-native) System.Reflection.Assembly.GetTypes(System.Reflection.Assembly,bool)
  at System.Reflection.Assembly.GetTypes () [0x00000] in <eae584ce26bc40229c1b1aa476bfa589>:0 
  at APIUpdater.NonObsoleteApiUpdaterDetector.ExtraInfoParser+<LoadTypesWithMovedFromAttributeAsync>d__3.MoveNext () [0x000c8] in <68bff7873e0e4aa69a14dfc30bebbe3e>:0 
	Could not load file or assembly 'UnityEditor.CoreModule, Version=0.0.0.0, Culture=neutral, PublicKeyToken=null' or one of its dependencies.

[api-updater (non-obsolete-error-filter)] 
----------------------------------
jit/startup time      : 3418,9561ms
moved types parse time: 93ms
candidates parse time : 11ms
C# parse time         : 1060ms
candidates check time : 54ms
console write time    : 3ms

[api-updater (non-obsolete-error-filter)] 20/04/2021 10:44:31 : Starting C:/Program Files/Unity/Hub/Editor/2020.3.3f1/Editor/Data/Tools/ScriptUpdater/APIUpdater.NonObsoleteApiUpdaterDetector.exe
[api-updater (non-obsolete-error-filter)] 
----------------------------------
jit/startup time      : 56,5774ms
moved types parse time: 50ms
candidates parse time : 1ms
C# parse time         : 175ms
candidates check time : 27ms
console write time    : 0ms

[api-updater (non-obsolete-error-filter)] 20/04/2021 10:44:46 : Starting C:/Program Files/Unity/Hub/Editor/2020.3.3f1/Editor/Data/Tools/ScriptUpdater/APIUpdater.NonObsoleteApiUpdaterDetector.exe
[api-updater (non-obsolete-error-filter)] 
----------------------------------
jit/startup time      : 61,8043ms
moved types parse time: 49ms
candidates parse time : 1ms
C# parse time         : 176ms
candidates check time : 27ms
console write time    : 0ms

[api-updater (non-obsolete-error-filter)] 20/04/2021 10:55:01 : Starting C:/Program Files/Unity/Hub/Editor/2020.3.3f1/Editor/Data/Tools/ScriptUpdater/APIUpdater.NonObsoleteApiUpdaterDetector.exe
[api-updater (non-obsolete-error-filter)] 
----------------------------------
jit/startup time      : 59,9207ms
moved types parse time: 56ms
candidates parse time : 1ms
C# parse time         : 190ms
candidates check time : 29ms
console write time    : 0ms

